Sesión 32 - Introducción a dplyr
…
## filter()

filter() nos permite obtener las filas (observaciones) que cumplen con las condiciones que necesitamos.

Listado de respuestas de Universidad Privada y de empresas con más de 700 empleados.

```r
# Filtramos los empleados que son de Universidad Privada y de empresas con más de 700 empleados.
encuesta %>%
  filter(universidad == "Universidad Privada" &  empleados > 700)
```

```
## # A tibble: 61 x 15
##    genero  edad universidad rubro empleados origen_capital empleados_rh puesto
##    <chr>  <dbl> <chr>       <chr>     <dbl> <chr>                 <dbl> <chr> 
##  1 Femen~    23 Universida~ Alim~     10000 Nacional                 40 Admin~
##  2 Femen~    32 Universida~ Serv~     10000 Multinacional            10 Admin~
##  3 Femen~    35 Universida~ Come~      1433 Nacional                 10 Anali~
##  4 Femen~    41 Universida~ Tran~      1000 Nacional                  8 Anali~
##  5 Femen~    27 Universida~ Prod~      5350 Multinacional           160 Anali~
##  6 Femen~    31 Universida~ Petr~     60000 Multinacional          2500 Anali~
##  7 Mascu~    29 Universida~ Banc~      5000 Nacional                  0 Anali~
##  8 Femen~    34 Universida~ Tecn~      3500 Multinacional            50 Anali~
##  9 Femen~    23 Universida~ Educ~      1300 Nacional                 12 Anali~
## 10 Mascu~    24 Universida~ Hote~      3500 Multinacional           100 Anali~
## # ... with 51 more rows, and 7 more variables: personas_a_cargo <dbl>,
## #   anios_rh <dbl>, sueldo_bruto <dbl>, aumento <dbl>, erp <chr>,
## #   satisfaccion <dbl>, buscando_trabajo <chr>
```

---
## filter()

filter() nos permite obtener las filas (observaciones) que cumplen con las condiciones que necesitamos.

Empleados de dos rubros diferentes

```r
encuesta %>%
  filter(rubro == "Servicios de salud"| rubro == "Tecnologías de Información, Sistemas, y afines")
```

```
## # A tibble: 119 x 15
##    genero  edad universidad rubro empleados origen_capital empleados_rh puesto
##    <chr>  <dbl> <chr>       <chr>     <dbl> <chr>                 <dbl> <chr> 
##  1 Femen~    30 Universida~ Serv~       135 Nacional                  3 Admin~
##  2 Femen~    39 Universida~ Tecn~        15 Nacional                  1 Admin~
##  3 Femen~    30 Universida~ Serv~        65 Nacional                  3 Admin~
##  4 Femen~    33 Universida~ Serv~       117 Nacional                  2 Admin~
##  5 Femen~    25 Universida~ Serv~      1900 Nacional                 11 Admin~
##  6 Femen~    35 Universida~ Serv~        30 Nacional                  8 Admin~
##  7 Femen~    28 Universida~ Tecn~        50 Multinacional             5 Admin~
##  8 Femen~    43 Universida~ Serv~       500 Nacional                 10 Admin~
##  9 Femen~    24 Universida~ Tecn~       270 Nacional                  7 Anali~
## 10 Femen~    25 Universida~ Tecn~       200 Nacional                  5 Anali~
## # ... with 109 more rows, and 7 more variables: personas_a_cargo <dbl>,
## #   anios_rh <dbl>, sueldo_bruto <dbl>, aumento <dbl>, erp <chr>,
## #   satisfaccion <dbl>, buscando_trabajo <chr>
```
…
